param cd1 >= 0;
param cd2 >= 0;
param cd3 >= 0;
param cd4 >= 0;
param cd5 >= 0;
param cd6 >= 0;
param cd7 >= 0;
param cd8 >= 0;
param cd9 >= 0;
param cd10 >= 0;
param cd11 >= 0;
param cd12 >= 0;
param cd13 >= 0;
param cd14 >= 0;
param cd15 >= 0;
param cd16 >= 0;
param cd17 >= 0;
param cd18 >= 0;
param cd19 >= 0;
param cd20 >= 0;
param cd21 >= 0;

param vd1_start > 0;
param vd2_start > 0;
param vd3_start > 0;
param vd4_start > 0;
param vd5_start > 0;
param vd6_start > 0;
param vd7_start > 0;
param vd8_start > 0;
param vd9_start > 0;
param vd10_start > 0;
param vd11_start > 0;
param vd12_start > 0;
param vd13_start > 0;
param vd14_start > 0;
param vd15_start > 0;
param vd16_start > 0;
param vd17_start > 0;
param vd18_start > 0;
param vd19_start > 0;
param vd20_start > 0;
param vd21_start > 0;
param vd22_start > 0;

var  vd1  := vd1_start;
var  vd2  := vd2_start;
var  vd3   := vd3_start;
var  vd4   := vd4_start;
var  vd5   := vd5_start;
var  vd6   := vd6_start;
var  vd7   := vd7_start;
var  vd8   := vd8_start;
var  vd9   := vd9_start;
var  vd10   := vd10_start;
var  vd11   := vd11_start;
var  vd12   := vd12_start;
var  vd13   := vd13_start;
var  vd14   := vd14_start;
var  vd15   := vd15_start;
 var  vd16   := vd16_start;
var  vd17   := vd17_start;
var  vd18   := vd18_start;
var  vd19   := vd19_start;
var  vd20   := vd20_start;
var  vd21   := vd21_start;
var  vd22   := vd22_start;

minimize   obj:  ( ( ( 50 * vd1 ) + ( 8 * vd2 )  ) + ( ( 30 * vd3 ) + ( ( ( ( ( 298 / ( 95 * ( 1 - ( 4 ** ( -3.772 * vd4 ) ) ) ) ) * ( ( 1.75 + ( 0.52224 * vd4 ) ) + 1.66 ) ) * 0.63 ) * 3600 ) / ( ( 1 / ( ( ( 95 * ( 1 - ( 4 ** ( -3.772 * vd4 ) ) ) ) / 100 ) * ( 0.355 * ( ( 0.52224 * vd4 ) / ( ( 0.408 * vd4 ) / 1479 ) ) ) ) ) * 3600 ) ) + ( ( ( ( ( 3351 * ( ( ( ( ( 3 / vd6 ) + 0.054166666666666667 ) + ( 0.25 / vd6 ) ) + 37.55152 ) / ( ( 70000 / ( 9.1246068904291757 * vd6 ) ) ** 5 ) ) ) + ( ( ( ( 136.6848 + ( ( ( ( 3 / vd6 ) + 0.054166666666666667 ) + ( 0.25 / vd6 ) ) * 2.5 ) ) + 46.9394 ) * 0.00027777777777778 ) * 0.63 ) ) * 3600 ) / ( ( ( ( 3 / vd6 ) + 0.054166666666666667 ) + ( 0.25 / vd6 ) ) + 37.55152 ) ) + ( ( ( ( 9199 * ( ( 43.6 + ( ( ( ( ( ( 2.28 / ( 0.03 * ( ( vd7 / 11.938052083641214 ) * 1000 ) ) ) + 0.002442217777777778 ) * 60 ) * 4 ) + 0.213333333333333333 ) + ( ( ( 107.6198 / ( 0.03 * ( ( vd7 / 11.938052083641214 ) * 1000 ) ) ) * 60 ) * 4 ) ) ) / ( ( 70000 / ( ( ( ( 0.03 * ( ( vd7 / 11.938052083641214 ) * 1000 ) ) ** 0.3 ) * 6.4976583507740902 ) * vd7 ) ) ** 5 ) ) ) + ( ( ( ( ( ( ( 0.76 * ( ( 11.341149479459153 * ( 0.03 * ( ( vd7 / 11.938052083641214 ) * 1000 ) ) ) / 60 ) ) / 1000 ) * ( ( ( 107.6198 / ( 0.03 * ( ( vd7 / 11.938052083641214 ) * 1000 ) ) ) * 60 ) * 4 ) ) + ( 42 * ( ( ( ( ( ( 2.28 / ( 0.03 * ( ( vd7 / 11.938052083641214 ) * 1000 ) ) ) + 0.002442217777777778 ) * 60 ) * 4 ) + 0.213333333333333333 ) + ( ( ( 107.6198 / ( 0.03 * ( ( vd7 / 11.938052083641214 ) * 1000 ) ) ) * 60 ) * 4 ) ) ) ) + ( ( 43.6 + ( ( ( ( ( ( 2.28 / ( 0.03 * ( ( vd7 / 11.938052083641214 ) * 1000 ) ) ) + 0.002442217777777778 ) * 60 ) * 4 ) + 0.213333333333333333 ) + ( ( ( 107.6198 / ( 0.03 * ( ( vd7 / 11.938052083641214 ) * 1000 ) ) ) * 60 ) * 4 ) ) ) * 7.5 ) ) * 0.00027777777777778 ) * 0.63 ) ) * 3600 ) / ( 43.6 + ( ( ( ( ( ( 2.28 / ( 0.03 * ( ( vd7 / 11.938052083641214 ) * 1000 ) ) ) + 0.002442217777777778 ) * 60 ) * 4 ) + 0.213333333333333333 ) + ( ( ( 107.6198 / ( 0.03 * ( ( vd7 / 11.938052083641214 ) * 1000 ) ) ) * 60 ) * 4 ) ) ) )  ) + ( 30 * vd5 ) + ( ( ( ( ( 3351 * ( ( ( ( ( 3 / vd8 ) + 0.054166666666666667 ) + ( 0.25 / vd8 ) ) + 37.55152 ) / ( ( 70000 / ( 9.1246068904291757 * vd8 ) ) ** 5 ) ) ) + ( ( ( ( 136.6848 + ( ( ( ( 3 / vd8 ) + 0.054166666666666667 ) + ( 0.25 / vd8 ) ) * 2.5 ) ) + 46.9394 ) * 0.00027777777777778 ) * 0.63 ) ) * 3600 ) / ( ( ( ( 3 / vd8 ) + 0.054166666666666667 ) + ( 0.25 / vd8 ) ) + 37.55152 ) ) + (if(  vd9 < 0.1  )then( 0 )else( (if(  vd9 <= 10  )then( ( 4 * vd9 ) )else( (if(  vd9 <= 40  )then( ( 40 + ( 6 * ( vd9 - 10 ) ) ) )else( ( 280 + ( 8 * ( vd9 - 40 ) ) ) )) )) )) + ( ( ( ( ( 6850 * ( ( 49 + ( ( ( ( 2.522 / ( ( 0.0257 * ( ( vd10 / 239.38936020354225 ) * 1000 ) ) * 7 ) ) * 60 ) + 1.3 ) + ( ( 182.3212 / ( ( 0.0257 * ( ( vd10 / 239.38936020354225 ) * 1000 ) ) * 7 ) ) * 60 ) ) ) / ( ( 30000 / ( ( ( ( ( 0.0257 * ( ( vd10 / 239.38936020354225 ) * 1000 ) ) * 7 ) ** 0.3 ) * 2.2973967099940702 ) * vd10 ) ) ** 5 ) ) ) + ( ( ( ( ( ( ( ( 860.9584 * ( ( 0.0257 * ( ( vd10 / 239.38936020354225 ) * 1000 ) ) * 7 ) ) * 0.016333333333333333 ) / 1000 ) * ( ( 182.3212 / ( ( 0.0257 * ( ( vd10 / 239.38936020354225 ) * 1000 ) ) * 7 ) ) * 60 ) ) + ( 42 * ( ( ( ( 2.522 / ( ( 0.0257 * ( ( vd10 / 239.38936020354225 ) * 1000 ) ) * 7 ) ) * 60 ) + 1.3 ) + ( ( 182.3212 / ( ( 0.0257 * ( ( vd10 / 239.38936020354225 ) * 1000 ) ) * 7 ) ) * 60 ) ) ) ) + ( ( 49 + ( ( ( ( 2.522 / ( ( 0.0257 * ( ( vd10 / 239.38936020354225 ) * 1000 ) ) * 7 ) ) * 60 ) + 1.3 ) + ( ( 182.3212 / ( ( 0.0257 * ( ( vd10 / 239.38936020354225 ) * 1000 ) ) * 7 ) ) * 60 ) ) ) * 7.5 ) ) * 0.00027777777777778 ) * 0.63 ) ) + ( ( 6850 * ( ( 49 + ( ( ( ( 2.522 / ( ( 0.0083 * ( ( vd11 / 39.898226700590371 ) * 1000 ) ) * 2 ) ) * 60 ) + 1.3 ) + ( ( 112.4712 / ( ( 0.0083 * ( ( vd11 / 39.898226700590371 ) * 1000 ) ) * 2 ) ) * 60 ) ) ) / ( ( 30000 / ( ( ( ( ( 0.0083 * ( ( vd11 / 39.898226700590371 ) * 1000 ) ) * 2 ) ** 0.3 ) * 1.1760790225246736 ) * vd11 ) ) ** 5 ) ) ) + ( ( ( ( ( ( ( ( 161.4297 * ( ( 0.0083 * ( ( vd11 / 39.898226700590371 ) * 1000 ) ) * 2 ) ) * 0.016333333333333333 ) / 1000 ) * ( ( 112.4712 / ( ( 0.0083 * ( ( vd11 / 39.898226700590371 ) * 1000 ) ) * 2 ) ) * 60 ) ) + ( 42 * ( ( ( ( 2.522 / ( ( 0.0083 * ( ( vd11 / 39.898226700590371 ) * 1000 ) ) * 2 ) ) * 60 ) + 1.3 ) + ( ( 112.4712 / ( ( 0.0083 * ( ( vd11 / 39.898226700590371 ) * 1000 ) ) * 2 ) ) * 60 ) ) ) ) + ( ( 49 + ( ( ( ( 2.522 / ( ( 0.0083 * ( ( vd11 / 39.898226700590371 ) * 1000 ) ) * 2 ) ) * 60 ) + 1.3 ) + ( ( 112.4712 / ( ( 0.0083 * ( ( vd11 / 39.898226700590371 ) * 1000 ) ) * 2 ) ) * 60 ) ) ) * 7.5 ) ) * 0.00027777777777778 ) * 0.63 ) ) + ( ( 6850 * ( ( 49 + ( ( ( ( 2.522 / ( ( 0.006 * ( ( vd12 / 19.949113350295185 ) * 1000 ) ) * 2 ) ) * 60 ) + 1.3 ) + ( ( 109.2962 / ( ( 0.006 * ( ( vd12 / 19.949113350295185 ) * 1000 ) ) * 2 ) ) * 60 ) ) ) / ( ( 30000 / ( ( ( ( ( 0.006 * ( ( vd12 / 19.949113350295185 ) * 1000 ) ) * 2 ) ** 0.3 ) * 1.1760790225246736 ) * vd12 ) ) ** 5 ) ) ) + ( ( ( ( ( ( ( ( 161.4297 * ( ( 0.006 * ( ( vd12 / 19.949113350295185 ) * 1000 ) ) * 2 ) ) * 0.016333333333333333 ) / 1000 ) * ( ( 109.2962 / ( ( 0.006 * ( ( vd12 / 19.949113350295185 ) * 1000 ) ) * 2 ) ) * 60 ) ) + ( 42 * ( ( ( ( 2.522 / ( ( 0.006 * ( ( vd12 / 19.949113350295185 ) * 1000 ) ) * 2 ) ) * 60 ) + 1.3 ) + ( ( 109.2962 / ( ( 0.006 * ( ( vd12 / 19.949113350295185 ) * 1000 ) ) * 2 ) ) * 60 ) ) ) ) + ( ( 49 + ( ( ( ( 2.522 / ( ( 0.006 * ( ( vd12 / 19.949113350295185 ) * 1000 ) ) * 2 ) ) * 60 ) + 1.3 ) + ( ( 109.2962 / ( ( 0.006 * ( ( vd12 / 19.949113350295185 ) * 1000 ) ) * 2 ) ) * 60 ) ) ) * 7.5 ) ) * 0.00027777777777778 ) * 0.63 ) ) + ( ( 6850 * ( ( 49 + ( ( ( ( 2.522 / ( ( 0.00475 * ( ( vd13 / 14.961835012721391 ) * 1000 ) ) * 2 ) ) * 60 ) + 1.3 ) + ( ( 108.50245 / ( ( 0.00475 * ( ( vd13 / 14.961835012721391 ) * 1000 ) ) * 2 ) ) * 60 ) ) ) / ( ( 30000 / ( ( ( ( ( 0.00475 * ( ( vd13 / 14.961835012721391 ) * 1000 ) ) * 2 ) ** 0.3 ) * 1.1760790225246736 ) * vd13 ) ) ** 5 ) ) ) + ( ( ( ( ( ( ( ( 161.4297 * ( ( 0.00475 * ( ( vd13 / 14.961835012721391 ) * 1000 ) ) * 2 ) ) * 0.016333333333333333 ) / 1000 ) * ( ( 108.50245 / ( ( 0.00475 * ( ( vd13 / 14.961835012721391 ) * 1000 ) ) * 2 ) ) * 60 ) ) + ( 42 * ( ( ( ( 2.522 / ( ( 0.00475 * ( ( vd13 / 14.961835012721391 ) * 1000 ) ) * 2 ) ) * 60 ) + 1.3 ) + ( ( 108.50245 / ( ( 0.00475 * ( ( vd13 / 14.961835012721391 ) * 1000 ) ) * 2 ) ) * 60 ) ) ) ) + ( ( 49 + ( ( ( ( 2.522 / ( ( 0.00475 * ( ( vd13 / 14.961835012721391 ) * 1000 ) ) * 2 ) ) * 60 ) + 1.3 ) + ( ( 108.50245 / ( ( 0.00475 * ( ( vd13 / 14.961835012721391 ) * 1000 ) ) * 2 ) ) * 60 ) ) ) * 7.5 ) ) * 0.00027777777777778 ) * 0.63 ) ) + ( ( 6850 * ( ( 49 + ( ( ( ( 2.522 / ( ( 0.004 * ( ( vd14 / 19.949113350295185 ) * 1000 ) ) * 2 ) ) * 60 ) + 1.3 ) + ( ( 109.2962 / ( ( 0.004 * ( ( vd14 / 19.949113350295185 ) * 1000 ) ) * 2 ) ) * 60 ) ) ) / ( ( 30000 / ( ( ( ( ( 0.004 * ( ( vd14 / 19.949113350295185 ) * 1000 ) ) * 2 ) ** 0.3 ) * 1.1760790225246736 ) * vd14 ) ) ** 5 ) ) ) + ( ( ( ( ( ( ( ( 161.4297 * ( ( 0.004 * ( ( vd14 / 19.949113350295185 ) * 1000 ) ) * 2 ) ) * 0.016333333333333333 ) / 1000 ) * ( ( 109.2962 / ( ( 0.004 * ( ( vd14 / 19.949113350295185 ) * 1000 ) ) * 2 ) ) * 60 ) ) + ( 42 * ( ( ( ( 2.522 / ( ( 0.004 * ( ( vd14 / 19.949113350295185 ) * 1000 ) ) * 2 ) ) * 60 ) + 1.3 ) + ( ( 109.2962 / ( ( 0.004 * ( ( vd14 / 19.949113350295185 ) * 1000 ) ) * 2 ) ) * 60 ) ) ) ) + ( ( 49 + ( ( ( ( 2.522 / ( ( 0.004 * ( ( vd14 / 19.949113350295185 ) * 1000 ) ) * 2 ) ) * 60 ) + 1.3 ) + ( ( 109.2962 / ( ( 0.004 * ( ( vd14 / 19.949113350295185 ) * 1000 ) ) * 2 ) ) * 60 ) ) ) * 7.5 ) ) * 0.00027777777777778 ) * 0.63 ) ) + ( ( 6850 * ( ( 49 + ( ( ( ( 2.522 / ( ( 0.004 * ( ( vd15 / 16.757255214247955 ) * 1000 ) ) * 2 ) ) * 60 ) + 1.3 ) + ( ( 108.7882 / ( ( 0.004 * ( ( vd15 / 16.757255214247955 ) * 1000 ) ) * 2 ) ) * 60 ) ) ) / ( ( 30000 / ( ( ( ( ( 0.004 * ( ( vd15 / 16.757255214247955 ) * 1000 ) ) * 2 ) ** 0.3 ) * 1.1760790225246736 ) * vd15 ) ) ** 5 ) ) ) + ( ( ( ( ( ( ( ( 161.4297 * ( ( 0.004 * ( ( vd15 / 16.757255214247955 ) * 1000 ) ) * 2 ) ) * 0.016333333333333333 ) / 1000 ) * ( ( 108.7882 / ( ( 0.004 * ( ( vd15 / 16.757255214247955 ) * 1000 ) ) * 2 ) ) * 60 ) ) + ( 42 * ( ( ( ( 2.522 / ( ( 0.004 * ( ( vd15 / 16.757255214247955 ) * 1000 ) ) * 2 ) ) * 60 ) + 1.3 ) + ( ( 108.7882 / ( ( 0.004 * ( ( vd15 / 16.757255214247955 ) * 1000 ) ) * 2 ) ) * 60 ) ) ) ) + ( ( 49 + ( ( ( ( 2.522 / ( ( 0.004 * ( ( vd15 / 16.757255214247955 ) * 1000 ) ) * 2 ) ) * 60 ) + 1.3 ) + ( ( 108.7882 / ( ( 0.004 * ( ( vd15 / 16.757255214247955 ) * 1000 ) ) * 2 ) ) * 60 ) ) ) * 7.5 ) ) * 0.00027777777777778 ) * 0.63 ) ) + ( ( 6850 * ( ( 49 + ( ( ( ( 2.522 / ( ( 0.004 * ( ( vd16 / 5.3212296366503917 ) * 1000 ) ) * 2 ) ) * 60 ) + 1.3 ) + ( ( 106.66036602266834 / ( ( 0.004 * ( ( vd16 / 5.3212296366503917 ) * 1000 ) ) * 2 ) ) * 60 ) ) ) / ( ( 30000 / ( ( ( ( ( 0.004 * ( ( vd16 / 5.3212296366503917 ) * 1000 ) ) * 2 ) ** 0.3 ) * 1.1760790225246736 ) * vd16 ) ) ** 5 ) ) ) + ( ( ( ( ( ( ( ( 161.4297 * ( ( 0.004 * ( ( vd16 / 5.3212296366503917 ) * 1000 ) ) * 2 ) ) * 0.016333333333333333 ) / 1000 ) * ( ( 106.66036602266834 / ( ( 0.004 * ( ( vd16 / 5.3212296366503917 ) * 1000 ) ) * 2 ) ) * 60 ) ) + ( 42 * ( ( ( ( 2.522 / ( ( 0.004 * ( ( vd16 / 5.3212296366503917 ) * 1000 ) ) * 2 ) ) * 60 ) + 1.3 ) + ( ( 106.66036602266834 / ( ( 0.004 * ( ( vd16 / 5.3212296366503917 ) * 1000 ) ) * 2 ) ) * 60 ) ) ) ) + ( ( 49 + ( ( ( ( 2.522 / ( ( 0.004 * ( ( vd16 / 5.3212296366503917 ) * 1000 ) ) * 2 ) ) * 60 ) + 1.3 ) + ( ( 106.66036602266834 / ( ( 0.004 * ( ( vd16 / 5.3212296366503917 ) * 1000 ) ) * 2 ) ) * 60 ) ) ) * 7.5 ) ) * 0.00027777777777778 ) * 0.63 ) ) + ( ( 9199 * ( ( 43.6 + ( ( ( ( ( ( 3.84 / ( 0.15 * ( ( vd17 / 20.106192982974676 ) * 1000 ) ) ) + 0.002476884444444444 ) * 60 ) * 4 ) + 0.213333333333333333 ) + ( ( ( 107.6198 / ( 0.15 * ( ( vd17 / 20.106192982974676 ) * 1000 ) ) ) * 60 ) * 4 ) ) ) / ( ( 70000 / ( ( ( ( 0.15 * ( ( vd17 / 20.106192982974676 ) * 1000 ) ) ** 0.3 ) * 6.4976583507740902 ) * vd17 ) ) ** 5 ) ) ) + ( ( ( ( ( ( ( 0.76 * ( ( 32.169908772759484 * ( 0.15 * ( ( vd17 / 20.106192982974676 ) * 1000 ) ) ) / 60 ) ) / 1000 ) * ( ( ( 107.6198 / ( 0.15 * ( ( vd17 / 20.106192982974676 ) * 1000 ) ) ) * 60 ) * 4 ) ) + ( 42 * ( ( ( ( ( ( 3.84 / ( 0.15 * ( ( vd17 / 20.106192982974676 ) * 1000 ) ) ) + 0.002476884444444444 ) * 60 ) * 4 ) + 0.213333333333333333 ) + ( ( ( 107.6198 / ( 0.15 * ( ( vd17 / 20.106192982974676 ) * 1000 ) ) ) * 60 ) * 4 ) ) ) ) + ( ( 43.6 + ( ( ( ( ( ( 3.84 / ( 0.15 * ( ( vd17 / 20.106192982974676 ) * 1000 ) ) ) + 0.002476884444444444 ) * 60 ) * 4 ) + 0.213333333333333333 ) + ( ( ( 107.6198 / ( 0.15 * ( ( vd17 / 20.106192982974676 ) * 1000 ) ) ) * 60 ) * 4 ) ) ) * 7.5 ) ) * 0.00027777777777778 ) * 0.63 ) ) + ( ( 9199 * ( ( 43.6 + ( ( ( ( ( ( 2.856 / ( 0.04 * ( ( vd18 / 14.953981031087414 ) * 1000 ) ) ) + 0.002455017777777778 ) * 60 ) * 4 ) + 0.213333333333333333 ) + ( ( ( 107.6198 / ( 0.04 * ( ( vd18 / 14.953981031087414 ) * 1000 ) ) ) * 60 ) * 4 ) ) ) / ( ( 70000 / ( ( ( ( 0.04 * ( ( vd18 / 14.953981031087414 ) * 1000 ) ) ** 0.3 ) * 6.4976583507740902 ) * vd18 ) ) ** 5 ) ) ) + ( ( ( ( ( ( ( 0.76 * ( ( 17.795237426994021 * ( 0.04 * ( ( vd18 / 14.953981031087414 ) * 1000 ) ) ) / 60 ) ) / 1000 ) * ( ( ( 107.6198 / ( 0.04 * ( ( vd18 / 14.953981031087414 ) * 1000 ) ) ) * 60 ) * 4 ) ) + ( 42 * ( ( ( ( ( ( 2.856 / ( 0.04 * ( ( vd18 / 14.953981031087414 ) * 1000 ) ) ) + 0.002455017777777778 ) * 60 ) * 4 ) + 0.213333333333333333 ) + ( ( ( 107.6198 / ( 0.04 * ( ( vd18 / 14.953981031087414 ) * 1000 ) ) ) * 60 ) * 4 ) ) ) ) + ( ( 43.6 + ( ( ( ( ( ( 2.856 / ( 0.04 * ( ( vd18 / 14.953981031087414 ) * 1000 ) ) ) + 0.002455017777777778 ) * 60 ) * 4 ) + 0.213333333333333333 ) + ( ( ( 107.6198 / ( 0.04 * ( ( vd18 / 14.953981031087414 ) * 1000 ) ) ) * 60 ) * 4 ) ) ) * 7.5 ) ) * 0.00027777777777778 ) * 0.63 ) ) + ( ( 9199 * ( ( 43.6 + ( ( ( ( ( ( 2.28 / ( 0.03 * ( ( vd19 / 11.938052083641214 ) * 1000 ) ) ) + 0.002442217777777778 ) * 60 ) * 4 ) + 0.213333333333333333 ) + ( ( ( 107.6198 / ( 0.03 * ( ( vd19 / 11.938052083641214 ) * 1000 ) ) ) * 60 ) * 4 ) ) ) / ( ( 70000 / ( ( ( ( 0.03 * ( ( vd19 / 11.938052083641214 ) * 1000 ) ) ** 0.3 ) * 6.4976583507740902 ) * vd19 ) ) ** 5 ) ) ) + ( ( ( ( ( ( ( 0.76 * ( ( 11.341149479459153 * ( 0.03 * ( ( vd19 / 11.938052083641214 ) * 1000 ) ) ) / 60 ) ) / 1000 ) * ( ( ( 107.6198 / ( 0.03 * ( ( vd19 / 11.938052083641214 ) * 1000 ) ) ) * 60 ) * 4 ) ) + ( 42 * ( ( ( ( ( ( 2.28 / ( 0.03 * ( ( vd19 / 11.938052083641214 ) * 1000 ) ) ) + 0.002442217777777778 ) * 60 ) * 4 ) + 0.213333333333333333 ) + ( ( ( 107.6198 / ( 0.03 * ( ( vd19 / 11.938052083641214 ) * 1000 ) ) ) * 60 ) * 4 ) ) ) ) + ( ( 43.6 + ( ( ( ( ( ( 2.28 / ( 0.03 * ( ( vd19 / 11.938052083641214 ) * 1000 ) ) ) + 0.002442217777777778 ) * 60 ) * 4 ) + 0.213333333333333333 ) + ( ( ( 107.6198 / ( 0.03 * ( ( vd19 / 11.938052083641214 ) * 1000 ) ) ) * 60 ) * 4 ) ) ) * 7.5 ) ) * 0.00027777777777778 ) * 0.63 ) ) + ( ( 6850 * ( ( 49 + ( ( ( ( 2.522 / ( ( 0.006 * ( ( vd20 / 19.949113350295185 ) * 1000 ) ) * 2 ) ) * 60 ) + 1.3 ) + ( ( 109.2962 / ( ( 0.006 * ( ( vd20 / 19.949113350295185 ) * 1000 ) ) * 2 ) ) * 60 ) ) ) / ( ( 30000 / ( ( ( ( ( 0.006 * ( ( vd20 / 19.949113350295185 ) * 1000 ) ) * 2 ) ** 0.3 ) * 1.1760790225246736 ) * vd20 ) ) ** 5 ) ) ) + ( ( ( ( ( ( ( ( 161.4297 * ( ( 0.006 * ( ( vd20 / 19.949113350295185 ) * 1000 ) ) * 2 ) ) * 0.016333333333333333 ) / 1000 ) * ( ( 109.2962 / ( ( 0.006 * ( ( vd20 / 19.949113350295185 ) * 1000 ) ) * 2 ) ) * 60 ) ) + ( 42 * ( ( ( ( 2.522 / ( ( 0.006 * ( ( vd20 / 19.949113350295185 ) * 1000 ) ) * 2 ) ) * 60 ) + 1.3 ) + ( ( 109.2962 / ( ( 0.006 * ( ( vd20 / 19.949113350295185 ) * 1000 ) ) * 2 ) ) * 60 ) ) ) ) + ( ( 49 + ( ( ( ( 2.522 / ( ( 0.006 * ( ( vd20 / 19.949113350295185 ) * 1000 ) ) * 2 ) ) * 60 ) + 1.3 ) + ( ( 109.2962 / ( ( 0.006 * ( ( vd20 / 19.949113350295185 ) * 1000 ) ) * 2 ) ) * 60 ) ) ) * 7.5 ) ) * 0.00027777777777778 ) * 0.63 ) )  ) * 3600 ) / ( ( 49 + ( ( ( ( 2.522 / ( ( 0.0257 * ( ( vd10 / 239.38936020354225 ) * 1000 ) ) * 7 ) ) * 60 ) + 1.3 ) + ( ( 182.3212 / ( ( 0.0257 * ( ( vd10 / 239.38936020354225 ) * 1000 ) ) * 7 ) ) * 60 ) ) ) + ( 49 + ( ( ( ( 2.522 / ( ( 0.0083 * ( ( vd11 / 39.898226700590371 ) * 1000 ) ) * 2 ) ) * 60 ) + 1.3 ) + ( ( 112.4712 / ( ( 0.0083 * ( ( vd11 / 39.898226700590371 ) * 1000 ) ) * 2 ) ) * 60 ) ) ) + ( 49 + ( ( ( ( 2.522 / ( ( 0.006 * ( ( vd12 / 19.949113350295185 ) * 1000 ) ) * 2 ) ) * 60 ) + 1.3 ) + ( ( 109.2962 / ( ( 0.006 * ( ( vd12 / 19.949113350295185 ) * 1000 ) ) * 2 ) ) * 60 ) ) ) + ( 49 + ( ( ( ( 2.522 / ( ( 0.00475 * ( ( vd13 / 14.961835012721391 ) * 1000 ) ) * 2 ) ) * 60 ) + 1.3 ) + ( ( 108.50245 / ( ( 0.00475 * ( ( vd13 / 14.961835012721391 ) * 1000 ) ) * 2 ) ) * 60 ) ) ) + ( 49 + ( ( ( ( 2.522 / ( ( 0.004 * ( ( vd14 / 19.949113350295185 ) * 1000 ) ) * 2 ) ) * 60 ) + 1.3 ) + ( ( 109.2962 / ( ( 0.004 * ( ( vd14 / 19.949113350295185 ) * 1000 ) ) * 2 ) ) * 60 ) ) ) + ( 49 + ( ( ( ( 2.522 / ( ( 0.004 * ( ( vd15 / 16.757255214247955 ) * 1000 ) ) * 2 ) ) * 60 ) + 1.3 ) + ( ( 108.7882 / ( ( 0.004 * ( ( vd15 / 16.757255214247955 ) * 1000 ) ) * 2 ) ) * 60 ) ) ) + ( 49 + ( ( ( ( 2.522 / ( ( 0.004 * ( ( vd16 / 5.3212296366503917 ) * 1000 ) ) * 2 ) ) * 60 ) + 1.3 ) + ( ( 106.66036602266834 / ( ( 0.004 * ( ( vd16 / 5.3212296366503917 ) * 1000 ) ) * 2 ) ) * 60 ) ) ) + ( 43.6 + ( ( ( ( ( ( 3.84 / ( 0.15 * ( ( vd17 / 20.106192982974676 ) * 1000 ) ) ) + 0.002476884444444444 ) * 60 ) * 4 ) + 0.213333333333333333 ) + ( ( ( 107.6198 / ( 0.15 * ( ( vd17 / 20.106192982974676 ) * 1000 ) ) ) * 60 ) * 4 ) ) ) + ( 43.6 + ( ( ( ( ( ( 2.856 / ( 0.04 * ( ( vd18 / 14.953981031087414 ) * 1000 ) ) ) + 0.002455017777777778 ) * 60 ) * 4 ) + 0.213333333333333333 ) + ( ( ( 107.6198 / ( 0.04 * ( ( vd18 / 14.953981031087414 ) * 1000 ) ) ) * 60 ) * 4 ) ) ) + ( 43.6 + ( ( ( ( ( ( 2.28 / ( 0.03 * ( ( vd19 / 11.938052083641214 ) * 1000 ) ) ) + 0.002442217777777778 ) * 60 ) * 4 ) + 0.213333333333333333 ) + ( ( ( 107.6198 / ( 0.03 * ( ( vd19 / 11.938052083641214 ) * 1000 ) ) ) * 60 ) * 4 ) ) ) + ( 49 + ( ( ( ( 2.522 / ( ( 0.006 * ( ( vd20 / 19.949113350295185 ) * 1000 ) ) * 2 ) ) * 60 ) + 1.3 ) + ( ( 109.2962 / ( ( 0.006 * ( ( vd20 / 19.949113350295185 ) * 1000 ) ) * 2 ) ) * 60 ) ) )  ) ) + (if(  vd21 < 0.1  )then( 0 )else( (if(  vd21 <= 10  )then( ( 4 * vd21 ) )else( (if(  vd21 <= 40  )then( ( 40 + ( 6 * ( vd21 - 10 ) ) ) )else( ( 280 + ( 8 * ( vd21 - 40 ) ) ) )) )) )) + (if(  vd22 < 0.1  )then( 0 )else( (if(  vd22 <= 10  )then( ( 4 * vd22 ) )else( (if(  vd22 <= 40  )then( ( 40 + ( 6 * ( vd22 - 10 ) ) ) )else( ( 280 + ( 8 * ( vd22 - 40 ) ) ) )) )) ))  )  ) + 0 + 0 + 0  ) ;  subject to uc1 :   vd1 >= 0  ;  subject to uc2 :   vd2 >= 0  ;  subject to uc3 :   ( vd1 - 0 ) >= cd1  ;  subject to uc4 :   ( vd2 - 0 ) >= cd2  ;  subject to uc5 :   ( 0 + vd1 ) >= ( ( vd1 - 0 ) + 0 )  ;  subject to uc6 :   ( 0 + vd2 ) >= ( ( vd2 - 0 ) + 0 )  ;  subject to uc7 :   vd3 >= 0  ;  subject to uc8 :   vd4 >= 0.000001  ;  subject to uc9 :   vd6 >= 0.001  ;  subject to uc10 :   vd6 <= 9999999  ;  subject to uc11 :   vd7 >= 20  ;  subject to uc12 :   ( ( 3600 / ( ( ( ( 3 / vd6 ) + 0.054166666666666667 ) + ( 0.25 / vd6 ) ) + 37.55152 ) ) - 0 ) >= cd11  ;  subject to uc13 :   ( ( 3600 / ( 43.6 + ( ( ( ( ( ( 2.28 / ( 0.03 * ( ( vd7 / 11.938052083641214 ) * 1000 ) ) ) + 0.002442217777777778 ) * 60 ) * 4 ) + 0.213333333333333333 ) + ( ( ( 107.6198 / ( 0.03 * ( ( vd7 / 11.938052083641214 ) * 1000 ) ) ) * 60 ) * 4 ) ) ) ) - 0 ) >= cd12  ;  subject to uc14 :   ( ( 3600 / ( ( ( ( 3 / vd6 ) + 0.054166666666666667 ) + ( 0.25 / vd6 ) ) + 37.55152 ) ) - ( 3600 / ( 43.6 + ( ( ( ( ( ( 2.28 / ( 0.03 * ( ( vd7 / 11.938052083641214 ) * 1000 ) ) ) + 0.002442217777777778 ) * 60 ) * 4 ) + 0.213333333333333333 ) + ( ( ( 107.6198 / ( 0.03 * ( ( vd7 / 11.938052083641214 ) * 1000 ) ) ) * 60 ) * 4 ) ) ) ) ) >= cd13  ;  subject to uc15 :   ( ( ( 3600 / ( ( ( ( 3 / vd6 ) + 0.054166666666666667 ) + ( 0.25 / vd6 ) ) + 37.55152 ) ) - 0 ) + 0 ) >= ( 0 + ( 3600 / ( ( ( ( 3 / vd6 ) + 0.054166666666666667 ) + ( 0.25 / vd6 ) ) + 37.55152 ) ) )  ;  subject to uc16 :   ( 0 + ( 3600 / ( 43.6 + ( ( ( ( ( ( 2.28 / ( 0.03 * ( ( vd7 / 11.938052083641214 ) * 1000 ) ) ) + 0.002442217777777778 ) * 60 ) * 4 ) + 0.213333333333333333 ) + ( ( ( 107.6198 / ( 0.03 * ( ( vd7 / 11.938052083641214 ) * 1000 ) ) ) * 60 ) * 4 ) ) ) ) ) >= ( ( ( 3600 / ( 43.6 + ( ( ( ( ( ( 2.28 / ( 0.03 * ( ( vd7 / 11.938052083641214 ) * 1000 ) ) ) + 0.002442217777777778 ) * 60 ) * 4 ) + 0.213333333333333333 ) + ( ( ( 107.6198 / ( 0.03 * ( ( vd7 / 11.938052083641214 ) * 1000 ) ) ) * 60 ) * 4 ) ) ) ) - 0 ) + 0 )  ;  subject to uc17 :   ( 0 + ( 3600 / ( ( ( ( 3 / vd6 ) + 0.054166666666666667 ) + ( 0.25 / vd6 ) ) + 37.55152 ) ) ) >= ( 0 + ( 3600 / ( 43.6 + ( ( ( ( ( ( 2.28 / ( 0.03 * ( ( vd7 / 11.938052083641214 ) * 1000 ) ) ) + 0.002442217777777778 ) * 60 ) * 4 ) + 0.213333333333333333 ) + ( ( ( 107.6198 / ( 0.03 * ( ( vd7 / 11.938052083641214 ) * 1000 ) ) ) * 60 ) * 4 ) ) ) ) )  ;  subject to uc18 :   vd5 >= 0  ;  subject to uc19 :   vd8 >= 0.001  ;  subject to uc20 :   vd8 <= 9999999  ;  subject to uc21 :   vd9 >= 0  ;  subject to uc22 :   vd10 >= 20  ;  subject to uc23 :   vd11 >= 20  ;  subject to uc24 :   vd12 >= 20  ;  subject to uc25 :   vd13 >= 20  ;  subject to uc26 :   vd14 >= 20  ;  subject to uc27 :   vd15 >= 20  ;  subject to uc28 :   vd16 >= 20  ;  subject to uc29 :   vd17 >= 20  ;  subject to uc30 :   vd18 >= 20  ;  subject to uc31 :   vd19 >= 20  ;  subject to uc32 :   vd20 >= 20  ;  subject to uc33 :   vd21 >= 0  ;  subject to uc34 :   vd22 >= 0  ;  subject to uc35 :   ( ( 3600 / ( ( ( ( 3 / vd8 ) + 0.054166666666666667 ) + ( 0.25 / vd8 ) ) + 37.55152 ) ) - 0 ) >= cd14  ;  subject to uc36 :   ( ( 1 * vd22 ) - 0 ) >= cd15  ;  subject to uc37 :   ( ( 1 * vd22 ) - 0 ) >= cd16  ;  subject to uc38 :   ( vd22 - 0 ) >= cd17  ;  subject to uc39 :   ( ( 3600 / ( ( ( ( 3 / vd8 ) + 0.054166666666666667 ) + ( 0.25 / vd8 ) ) + 37.55152 ) ) - ( 1 * vd9 ) ) >= cd21  ;  subject to uc40 :   ( vd9 - ( 3600 / ( ( 49 + ( ( ( ( 2.522 / ( ( 0.0257 * ( ( vd10 / 239.38936020354225 ) * 1000 ) ) * 7 ) ) * 60 ) + 1.3 ) + ( ( 182.3212 / ( ( 0.0257 * ( ( vd10 / 239.38936020354225 ) * 1000 ) ) * 7 ) ) * 60 ) ) ) + ( 49 + ( ( ( ( 2.522 / ( ( 0.0083 * ( ( vd11 / 39.898226700590371 ) * 1000 ) ) * 2 ) ) * 60 ) + 1.3 ) + ( ( 112.4712 / ( ( 0.0083 * ( ( vd11 / 39.898226700590371 ) * 1000 ) ) * 2 ) ) * 60 ) ) ) + ( 49 + ( ( ( ( 2.522 / ( ( 0.006 * ( ( vd12 / 19.949113350295185 ) * 1000 ) ) * 2 ) ) * 60 ) + 1.3 ) + ( ( 109.2962 / ( ( 0.006 * ( ( vd12 / 19.949113350295185 ) * 1000 ) ) * 2 ) ) * 60 ) ) ) + ( 49 + ( ( ( ( 2.522 / ( ( 0.00475 * ( ( vd13 / 14.961835012721391 ) * 1000 ) ) * 2 ) ) * 60 ) + 1.3 ) + ( ( 108.50245 / ( ( 0.00475 * ( ( vd13 / 14.961835012721391 ) * 1000 ) ) * 2 ) ) * 60 ) ) ) + ( 49 + ( ( ( ( 2.522 / ( ( 0.004 * ( ( vd14 / 19.949113350295185 ) * 1000 ) ) * 2 ) ) * 60 ) + 1.3 ) + ( ( 109.2962 / ( ( 0.004 * ( ( vd14 / 19.949113350295185 ) * 1000 ) ) * 2 ) ) * 60 ) ) ) + ( 49 + ( ( ( ( 2.522 / ( ( 0.004 * ( ( vd15 / 16.757255214247955 ) * 1000 ) ) * 2 ) ) * 60 ) + 1.3 ) + ( ( 108.7882 / ( ( 0.004 * ( ( vd15 / 16.757255214247955 ) * 1000 ) ) * 2 ) ) * 60 ) ) ) + ( 49 + ( ( ( ( 2.522 / ( ( 0.004 * ( ( vd16 / 5.3212296366503917 ) * 1000 ) ) * 2 ) ) * 60 ) + 1.3 ) + ( ( 106.66036602266834 / ( ( 0.004 * ( ( vd16 / 5.3212296366503917 ) * 1000 ) ) * 2 ) ) * 60 ) ) ) + ( 43.6 + ( ( ( ( ( ( 3.84 / ( 0.15 * ( ( vd17 / 20.106192982974676 ) * 1000 ) ) ) + 0.002476884444444444 ) * 60 ) * 4 ) + 0.213333333333333333 ) + ( ( ( 107.6198 / ( 0.15 * ( ( vd17 / 20.106192982974676 ) * 1000 ) ) ) * 60 ) * 4 ) ) ) + ( 43.6 + ( ( ( ( ( ( 2.856 / ( 0.04 * ( ( vd18 / 14.953981031087414 ) * 1000 ) ) ) + 0.002455017777777778 ) * 60 ) * 4 ) + 0.213333333333333333 ) + ( ( ( 107.6198 / ( 0.04 * ( ( vd18 / 14.953981031087414 ) * 1000 ) ) ) * 60 ) * 4 ) ) ) + ( 43.6 + ( ( ( ( ( ( 2.28 / ( 0.03 * ( ( vd19 / 11.938052083641214 ) * 1000 ) ) ) + 0.002442217777777778 ) * 60 ) * 4 ) + 0.213333333333333333 ) + ( ( ( 107.6198 / ( 0.03 * ( ( vd19 / 11.938052083641214 ) * 1000 ) ) ) * 60 ) * 4 ) ) ) + ( 49 + ( ( ( ( 2.522 / ( ( 0.006 * ( ( vd20 / 19.949113350295185 ) * 1000 ) ) * 2 ) ) * 60 ) + 1.3 ) + ( ( 109.2962 / ( ( 0.006 * ( ( vd20 / 19.949113350295185 ) * 1000 ) ) * 2 ) ) * 60 ) ) )  ) ) ) >= cd20  ;  subject to uc41 :   ( ( 3600 / ( ( 49 + ( ( ( ( 2.522 / ( ( 0.0257 * ( ( vd10 / 239.38936020354225 ) * 1000 ) ) * 7 ) ) * 60 ) + 1.3 ) + ( ( 182.3212 / ( ( 0.0257 * ( ( vd10 / 239.38936020354225 ) * 1000 ) ) * 7 ) ) * 60 ) ) ) + ( 49 + ( ( ( ( 2.522 / ( ( 0.0083 * ( ( vd11 / 39.898226700590371 ) * 1000 ) ) * 2 ) ) * 60 ) + 1.3 ) + ( ( 112.4712 / ( ( 0.0083 * ( ( vd11 / 39.898226700590371 ) * 1000 ) ) * 2 ) ) * 60 ) ) ) + ( 49 + ( ( ( ( 2.522 / ( ( 0.006 * ( ( vd12 / 19.949113350295185 ) * 1000 ) ) * 2 ) ) * 60 ) + 1.3 ) + ( ( 109.2962 / ( ( 0.006 * ( ( vd12 / 19.949113350295185 ) * 1000 ) ) * 2 ) ) * 60 ) ) ) + ( 49 + ( ( ( ( 2.522 / ( ( 0.00475 * ( ( vd13 / 14.961835012721391 ) * 1000 ) ) * 2 ) ) * 60 ) + 1.3 ) + ( ( 108.50245 / ( ( 0.00475 * ( ( vd13 / 14.961835012721391 ) * 1000 ) ) * 2 ) ) * 60 ) ) ) + ( 49 + ( ( ( ( 2.522 / ( ( 0.004 * ( ( vd14 / 19.949113350295185 ) * 1000 ) ) * 2 ) ) * 60 ) + 1.3 ) + ( ( 109.2962 / ( ( 0.004 * ( ( vd14 / 19.949113350295185 ) * 1000 ) ) * 2 ) ) * 60 ) ) ) + ( 49 + ( ( ( ( 2.522 / ( ( 0.004 * ( ( vd15 / 16.757255214247955 ) * 1000 ) ) * 2 ) ) * 60 ) + 1.3 ) + ( ( 108.7882 / ( ( 0.004 * ( ( vd15 / 16.757255214247955 ) * 1000 ) ) * 2 ) ) * 60 ) ) ) + ( 49 + ( ( ( ( 2.522 / ( ( 0.004 * ( ( vd16 / 5.3212296366503917 ) * 1000 ) ) * 2 ) ) * 60 ) + 1.3 ) + ( ( 106.66036602266834 / ( ( 0.004 * ( ( vd16 / 5.3212296366503917 ) * 1000 ) ) * 2 ) ) * 60 ) ) ) + ( 43.6 + ( ( ( ( ( ( 3.84 / ( 0.15 * ( ( vd17 / 20.106192982974676 ) * 1000 ) ) ) + 0.002476884444444444 ) * 60 ) * 4 ) + 0.213333333333333333 ) + ( ( ( 107.6198 / ( 0.15 * ( ( vd17 / 20.106192982974676 ) * 1000 ) ) ) * 60 ) * 4 ) ) ) + ( 43.6 + ( ( ( ( ( ( 2.856 / ( 0.04 * ( ( vd18 / 14.953981031087414 ) * 1000 ) ) ) + 0.002455017777777778 ) * 60 ) * 4 ) + 0.213333333333333333 ) + ( ( ( 107.6198 / ( 0.04 * ( ( vd18 / 14.953981031087414 ) * 1000 ) ) ) * 60 ) * 4 ) ) ) + ( 43.6 + ( ( ( ( ( ( 2.28 / ( 0.03 * ( ( vd19 / 11.938052083641214 ) * 1000 ) ) ) + 0.002442217777777778 ) * 60 ) * 4 ) + 0.213333333333333333 ) + ( ( ( 107.6198 / ( 0.03 * ( ( vd19 / 11.938052083641214 ) * 1000 ) ) ) * 60 ) * 4 ) ) ) + ( 49 + ( ( ( ( 2.522 / ( ( 0.006 * ( ( vd20 / 19.949113350295185 ) * 1000 ) ) * 2 ) ) * 60 ) + 1.3 ) + ( ( 109.2962 / ( ( 0.006 * ( ( vd20 / 19.949113350295185 ) * 1000 ) ) * 2 ) ) * 60 ) ) )  ) ) - ( 1 * vd21 ) ) >= cd19  ;  subject to uc42 :   ( ( 3600 / ( ( 49 + ( ( ( ( 2.522 / ( ( 0.0257 * ( ( vd10 / 239.38936020354225 ) * 1000 ) ) * 7 ) ) * 60 ) + 1.3 ) + ( ( 182.3212 / ( ( 0.0257 * ( ( vd10 / 239.38936020354225 ) * 1000 ) ) * 7 ) ) * 60 ) ) ) + ( 49 + ( ( ( ( 2.522 / ( ( 0.0083 * ( ( vd11 / 39.898226700590371 ) * 1000 ) ) * 2 ) ) * 60 ) + 1.3 ) + ( ( 112.4712 / ( ( 0.0083 * ( ( vd11 / 39.898226700590371 ) * 1000 ) ) * 2 ) ) * 60 ) ) ) + ( 49 + ( ( ( ( 2.522 / ( ( 0.006 * ( ( vd12 / 19.949113350295185 ) * 1000 ) ) * 2 ) ) * 60 ) + 1.3 ) + ( ( 109.2962 / ( ( 0.006 * ( ( vd12 / 19.949113350295185 ) * 1000 ) ) * 2 ) ) * 60 ) ) ) + ( 49 + ( ( ( ( 2.522 / ( ( 0.00475 * ( ( vd13 / 14.961835012721391 ) * 1000 ) ) * 2 ) ) * 60 ) + 1.3 ) + ( ( 108.50245 / ( ( 0.00475 * ( ( vd13 / 14.961835012721391 ) * 1000 ) ) * 2 ) ) * 60 ) ) ) + ( 49 + ( ( ( ( 2.522 / ( ( 0.004 * ( ( vd14 / 19.949113350295185 ) * 1000 ) ) * 2 ) ) * 60 ) + 1.3 ) + ( ( 109.2962 / ( ( 0.004 * ( ( vd14 / 19.949113350295185 ) * 1000 ) ) * 2 ) ) * 60 ) ) ) + ( 49 + ( ( ( ( 2.522 / ( ( 0.004 * ( ( vd15 / 16.757255214247955 ) * 1000 ) ) * 2 ) ) * 60 ) + 1.3 ) + ( ( 108.7882 / ( ( 0.004 * ( ( vd15 / 16.757255214247955 ) * 1000 ) ) * 2 ) ) * 60 ) ) ) + ( 49 + ( ( ( ( 2.522 / ( ( 0.004 * ( ( vd16 / 5.3212296366503917 ) * 1000 ) ) * 2 ) ) * 60 ) + 1.3 ) + ( ( 106.66036602266834 / ( ( 0.004 * ( ( vd16 / 5.3212296366503917 ) * 1000 ) ) * 2 ) ) * 60 ) ) ) + ( 43.6 + ( ( ( ( ( ( 3.84 / ( 0.15 * ( ( vd17 / 20.106192982974676 ) * 1000 ) ) ) + 0.002476884444444444 ) * 60 ) * 4 ) + 0.213333333333333333 ) + ( ( ( 107.6198 / ( 0.15 * ( ( vd17 / 20.106192982974676 ) * 1000 ) ) ) * 60 ) * 4 ) ) ) + ( 43.6 + ( ( ( ( ( ( 2.856 / ( 0.04 * ( ( vd18 / 14.953981031087414 ) * 1000 ) ) ) + 0.002455017777777778 ) * 60 ) * 4 ) + 0.213333333333333333 ) + ( ( ( 107.6198 / ( 0.04 * ( ( vd18 / 14.953981031087414 ) * 1000 ) ) ) * 60 ) * 4 ) ) ) + ( 43.6 + ( ( ( ( ( ( 2.28 / ( 0.03 * ( ( vd19 / 11.938052083641214 ) * 1000 ) ) ) + 0.002442217777777778 ) * 60 ) * 4 ) + 0.213333333333333333 ) + ( ( ( 107.6198 / ( 0.03 * ( ( vd19 / 11.938052083641214 ) * 1000 ) ) ) * 60 ) * 4 ) ) ) + ( 49 + ( ( ( ( 2.522 / ( ( 0.006 * ( ( vd20 / 19.949113350295185 ) * 1000 ) ) * 2 ) ) * 60 ) + 1.3 ) + ( ( 109.2962 / ( ( 0.006 * ( ( vd20 / 19.949113350295185 ) * 1000 ) ) * 2 ) ) * 60 ) ) )  ) ) - ( 1 * vd21 ) ) <= 2.319  ;  subject to uc43 :   ( vd21 - ( 1 * vd22 ) ) >= cd18  ;  subject to uc44 :   ( vd21 - ( 1 * vd22 ) ) <= 1.318  ;  subject to uc45 :   ( ( ( 3600 / ( ( ( ( 3 / vd8 ) + 0.054166666666666667 ) + ( 0.25 / vd8 ) ) + 37.55152 ) ) - 0 ) + 0 ) >= ( 0 + ( 3600 / ( ( ( ( 3 / vd8 ) + 0.054166666666666667 ) + ( 0.25 / vd8 ) ) + 37.55152 ) ) )  ;  subject to uc46 :   ( ( ( 1 * vd22 ) - 0 ) + 0 ) >= ( 0 + ( 1 * vd22 ) )  ;  subject to uc47 :   ( ( ( 1 * vd22 ) - 0 ) + 0 ) >= ( 0 + ( 1 * vd22 ) )  ;  subject to uc48 :   ( 0 + vd22 ) >= ( ( vd22 - 0 ) + 0 )  ;  subject to uc49 :   ( 0 + ( 3600 / ( ( ( ( 3 / vd8 ) + 0.054166666666666667 ) + ( 0.25 / vd8 ) ) + 37.55152 ) ) ) >= ( 0 + ( 1 * vd9 ) )  ;  subject to uc50 :   ( 0 + vd9 ) >= ( 0 + ( 3600 / ( ( 49 + ( ( ( ( 2.522 / ( ( 0.0257 * ( ( vd10 / 239.38936020354225 ) * 1000 ) ) * 7 ) ) * 60 ) + 1.3 ) + ( ( 182.3212 / ( ( 0.0257 * ( ( vd10 / 239.38936020354225 ) * 1000 ) ) * 7 ) ) * 60 ) ) ) + ( 49 + ( ( ( ( 2.522 / ( ( 0.0083 * ( ( vd11 / 39.898226700590371 ) * 1000 ) ) * 2 ) ) * 60 ) + 1.3 ) + ( ( 112.4712 / ( ( 0.0083 * ( ( vd11 / 39.898226700590371 ) * 1000 ) ) * 2 ) ) * 60 ) ) ) + ( 49 + ( ( ( ( 2.522 / ( ( 0.006 * ( ( vd12 / 19.949113350295185 ) * 1000 ) ) * 2 ) ) * 60 ) + 1.3 ) + ( ( 109.2962 / ( ( 0.006 * ( ( vd12 / 19.949113350295185 ) * 1000 ) ) * 2 ) ) * 60 ) ) ) + ( 49 + ( ( ( ( 2.522 / ( ( 0.00475 * ( ( vd13 / 14.961835012721391 ) * 1000 ) ) * 2 ) ) * 60 ) + 1.3 ) + ( ( 108.50245 / ( ( 0.00475 * ( ( vd13 / 14.961835012721391 ) * 1000 ) ) * 2 ) ) * 60 ) ) ) + ( 49 + ( ( ( ( 2.522 / ( ( 0.004 * ( ( vd14 / 19.949113350295185 ) * 1000 ) ) * 2 ) ) * 60 ) + 1.3 ) + ( ( 109.2962 / ( ( 0.004 * ( ( vd14 / 19.949113350295185 ) * 1000 ) ) * 2 ) ) * 60 ) ) ) + ( 49 + ( ( ( ( 2.522 / ( ( 0.004 * ( ( vd15 / 16.757255214247955 ) * 1000 ) ) * 2 ) ) * 60 ) + 1.3 ) + ( ( 108.7882 / ( ( 0.004 * ( ( vd15 / 16.757255214247955 ) * 1000 ) ) * 2 ) ) * 60 ) ) ) + ( 49 + ( ( ( ( 2.522 / ( ( 0.004 * ( ( vd16 / 5.3212296366503917 ) * 1000 ) ) * 2 ) ) * 60 ) + 1.3 ) + ( ( 106.66036602266834 / ( ( 0.004 * ( ( vd16 / 5.3212296366503917 ) * 1000 ) ) * 2 ) ) * 60 ) ) ) + ( 43.6 + ( ( ( ( ( ( 3.84 / ( 0.15 * ( ( vd17 / 20.106192982974676 ) * 1000 ) ) ) + 0.002476884444444444 ) * 60 ) * 4 ) + 0.213333333333333333 ) + ( ( ( 107.6198 / ( 0.15 * ( ( vd17 / 20.106192982974676 ) * 1000 ) ) ) * 60 ) * 4 ) ) ) + ( 43.6 + ( ( ( ( ( ( 2.856 / ( 0.04 * ( ( vd18 / 14.953981031087414 ) * 1000 ) ) ) + 0.002455017777777778 ) * 60 ) * 4 ) + 0.213333333333333333 ) + ( ( ( 107.6198 / ( 0.04 * ( ( vd18 / 14.953981031087414 ) * 1000 ) ) ) * 60 ) * 4 ) ) ) + ( 43.6 + ( ( ( ( ( ( 2.28 / ( 0.03 * ( ( vd19 / 11.938052083641214 ) * 1000 ) ) ) + 0.002442217777777778 ) * 60 ) * 4 ) + 0.213333333333333333 ) + ( ( ( 107.6198 / ( 0.03 * ( ( vd19 / 11.938052083641214 ) * 1000 ) ) ) * 60 ) * 4 ) ) ) + ( 49 + ( ( ( ( 2.522 / ( ( 0.006 * ( ( vd20 / 19.949113350295185 ) * 1000 ) ) * 2 ) ) * 60 ) + 1.3 ) + ( ( 109.2962 / ( ( 0.006 * ( ( vd20 / 19.949113350295185 ) * 1000 ) ) * 2 ) ) * 60 ) ) )  ) ) )  ;  subject to uc51 :   ( 0 + ( 3600 / ( ( 49 + ( ( ( ( 2.522 / ( ( 0.0257 * ( ( vd10 / 239.38936020354225 ) * 1000 ) ) * 7 ) ) * 60 ) + 1.3 ) + ( ( 182.3212 / ( ( 0.0257 * ( ( vd10 / 239.38936020354225 ) * 1000 ) ) * 7 ) ) * 60 ) ) ) + ( 49 + ( ( ( ( 2.522 / ( ( 0.0083 * ( ( vd11 / 39.898226700590371 ) * 1000 ) ) * 2 ) ) * 60 ) + 1.3 ) + ( ( 112.4712 / ( ( 0.0083 * ( ( vd11 / 39.898226700590371 ) * 1000 ) ) * 2 ) ) * 60 ) ) ) + ( 49 + ( ( ( ( 2.522 / ( ( 0.006 * ( ( vd12 / 19.949113350295185 ) * 1000 ) ) * 2 ) ) * 60 ) + 1.3 ) + ( ( 109.2962 / ( ( 0.006 * ( ( vd12 / 19.949113350295185 ) * 1000 ) ) * 2 ) ) * 60 ) ) ) + ( 49 + ( ( ( ( 2.522 / ( ( 0.00475 * ( ( vd13 / 14.961835012721391 ) * 1000 ) ) * 2 ) ) * 60 ) + 1.3 ) + ( ( 108.50245 / ( ( 0.00475 * ( ( vd13 / 14.961835012721391 ) * 1000 ) ) * 2 ) ) * 60 ) ) ) + ( 49 + ( ( ( ( 2.522 / ( ( 0.004 * ( ( vd14 / 19.949113350295185 ) * 1000 ) ) * 2 ) ) * 60 ) + 1.3 ) + ( ( 109.2962 / ( ( 0.004 * ( ( vd14 / 19.949113350295185 ) * 1000 ) ) * 2 ) ) * 60 ) ) ) + ( 49 + ( ( ( ( 2.522 / ( ( 0.004 * ( ( vd15 / 16.757255214247955 ) * 1000 ) ) * 2 ) ) * 60 ) + 1.3 ) + ( ( 108.7882 / ( ( 0.004 * ( ( vd15 / 16.757255214247955 ) * 1000 ) ) * 2 ) ) * 60 ) ) ) + ( 49 + ( ( ( ( 2.522 / ( ( 0.004 * ( ( vd16 / 5.3212296366503917 ) * 1000 ) ) * 2 ) ) * 60 ) + 1.3 ) + ( ( 106.66036602266834 / ( ( 0.004 * ( ( vd16 / 5.3212296366503917 ) * 1000 ) ) * 2 ) ) * 60 ) ) ) + ( 43.6 + ( ( ( ( ( ( 3.84 / ( 0.15 * ( ( vd17 / 20.106192982974676 ) * 1000 ) ) ) + 0.002476884444444444 ) * 60 ) * 4 ) + 0.213333333333333333 ) + ( ( ( 107.6198 / ( 0.15 * ( ( vd17 / 20.106192982974676 ) * 1000 ) ) ) * 60 ) * 4 ) ) ) + ( 43.6 + ( ( ( ( ( ( 2.856 / ( 0.04 * ( ( vd18 / 14.953981031087414 ) * 1000 ) ) ) + 0.002455017777777778 ) * 60 ) * 4 ) + 0.213333333333333333 ) + ( ( ( 107.6198 / ( 0.04 * ( ( vd18 / 14.953981031087414 ) * 1000 ) ) ) * 60 ) * 4 ) ) ) + ( 43.6 + ( ( ( ( ( ( 2.28 / ( 0.03 * ( ( vd19 / 11.938052083641214 ) * 1000 ) ) ) + 0.002442217777777778 ) * 60 ) * 4 ) + 0.213333333333333333 ) + ( ( ( 107.6198 / ( 0.03 * ( ( vd19 / 11.938052083641214 ) * 1000 ) ) ) * 60 ) * 4 ) ) ) + ( 49 + ( ( ( ( 2.522 / ( ( 0.006 * ( ( vd20 / 19.949113350295185 ) * 1000 ) ) * 2 ) ) * 60 ) + 1.3 ) + ( ( 109.2962 / ( ( 0.006 * ( ( vd20 / 19.949113350295185 ) * 1000 ) ) * 2 ) ) * 60 ) ) )  ) ) ) >= ( 0 + ( 1 * vd21 ) )  ;  subject to uc52 :   ( 0 + vd21 ) >= ( 0 + ( 1 * vd22 ) )  ;  subject to uc53 :   ( ( ( 2 * vd3 ) + ( 3600 / ( ( 1 / ( ( ( 95 * ( 1 - ( 4 ** ( -3.772 * vd4 ) ) ) ) / 100 ) * ( 0.355 * ( ( 0.52224 * vd4 ) / ( ( 0.408 * vd4 ) / 1479 ) ) ) ) ) * 3600 ) )  ) - 0 ) >= cd3  ;  subject to uc54 :   ( ( ( 1 * vd22 ) - 0 ) - 0 ) >= cd4  ;  subject to uc55 :   ( ( vd3 + ( 3600 / ( ( 1 / ( ( ( 95 * ( 1 - ( 4 ** ( -3.772 * vd4 ) ) ) ) / 100 ) * ( 0.355 * ( ( 0.52224 * vd4 ) / ( ( 0.408 * vd4 ) / 1479 ) ) ) ) ) * 3600 ) )  ) - ( ( ( 3600 / ( ( ( ( 3 / vd6 ) + 0.054166666666666667 ) + ( 0.25 / vd6 ) ) + 37.55152 ) ) - 0 ) + ( 1 * vd5 ) + ( ( 3600 / ( ( ( ( 3 / vd8 ) + 0.054166666666666667 ) + ( 0.25 / vd8 ) ) + 37.55152 ) ) - 0 )  ) ) >= cd5  ;  subject to uc56 :   ( ( ( ( 3600 / ( 43.6 + ( ( ( ( ( ( 2.28 / ( 0.03 * ( ( vd7 / 11.938052083641214 ) * 1000 ) ) ) + 0.002442217777777778 ) * 60 ) * 4 ) + 0.213333333333333333 ) + ( ( ( 107.6198 / ( 0.03 * ( ( vd7 / 11.938052083641214 ) * 1000 ) ) ) * 60 ) * 4 ) ) ) ) - 0 ) + vd5  ) - ( ( 1 * vd22 ) - 0 ) ) >= cd6  ;  subject to uc57 :   ( ( vd22 - 0 ) - 0 ) >= cd7  ;  subject to uc58 :   ( ( ( ( 2 * vd3 ) + ( 3600 / ( ( 1 / ( ( ( 95 * ( 1 - ( 4 ** ( -3.772 * vd4 ) ) ) ) / 100 ) * ( 0.355 * ( ( 0.52224 * vd4 ) / ( ( 0.408 * vd4 ) / 1479 ) ) ) ) ) * 3600 ) )  ) - 0 ) + 0 ) >= ( 0 + ( ( 2 * vd3 ) + ( 3600 / ( ( 1 / ( ( ( 95 * ( 1 - ( 4 ** ( -3.772 * vd4 ) ) ) ) / 100 ) * ( 0.355 * ( ( 0.52224 * vd4 ) / ( ( 0.408 * vd4 ) / 1479 ) ) ) ) ) * 3600 ) )  ) )  ;  subject to uc59 :   ( ( ( ( 1 * vd22 ) - 0 ) - 0 ) + 0 ) >= ( 0 + ( ( 1 * vd22 ) - 0 ) )  ;  subject to uc60 :   ( 0 + ( vd3 + ( 3600 / ( ( 1 / ( ( ( 95 * ( 1 - ( 4 ** ( -3.772 * vd4 ) ) ) ) / 100 ) * ( 0.355 * ( ( 0.52224 * vd4 ) / ( ( 0.408 * vd4 ) / 1479 ) ) ) ) ) * 3600 ) )  ) ) >= ( ( ( vd3 + ( 3600 / ( ( 1 / ( ( ( 95 * ( 1 - ( 4 ** ( -3.772 * vd4 ) ) ) ) / 100 ) * ( 0.355 * ( ( 0.52224 * vd4 ) / ( ( 0.408 * vd4 ) / 1479 ) ) ) ) ) * 3600 ) )  ) - ( ( ( 3600 / ( ( ( ( 3 / vd6 ) + 0.054166666666666667 ) + ( 0.25 / vd6 ) ) + 37.55152 ) ) - 0 ) + ( 1 * vd5 ) + ( ( 3600 / ( ( ( ( 3 / vd8 ) + 0.054166666666666667 ) + ( 0.25 / vd8 ) ) + 37.55152 ) ) - 0 )  ) ) + ( ( ( 3600 / ( ( ( ( 3 / vd6 ) + 0.054166666666666667 ) + ( 0.25 / vd6 ) ) + 37.55152 ) ) - 0 ) + ( 1 * vd5 ) + ( ( 3600 / ( ( ( ( 3 / vd8 ) + 0.054166666666666667 ) + ( 0.25 / vd8 ) ) + 37.55152 ) ) - 0 )  ) )  ;  subject to uc61 :   ( 0 + ( ( ( 3600 / ( 43.6 + ( ( ( ( ( ( 2.28 / ( 0.03 * ( ( vd7 / 11.938052083641214 ) * 1000 ) ) ) + 0.002442217777777778 ) * 60 ) * 4 ) + 0.213333333333333333 ) + ( ( ( 107.6198 / ( 0.03 * ( ( vd7 / 11.938052083641214 ) * 1000 ) ) ) * 60 ) * 4 ) ) ) ) - 0 ) + vd5  ) ) >= ( ( ( ( ( 3600 / ( 43.6 + ( ( ( ( ( ( 2.28 / ( 0.03 * ( ( vd7 / 11.938052083641214 ) * 1000 ) ) ) + 0.002442217777777778 ) * 60 ) * 4 ) + 0.213333333333333333 ) + ( ( ( 107.6198 / ( 0.03 * ( ( vd7 / 11.938052083641214 ) * 1000 ) ) ) * 60 ) * 4 ) ) ) ) - 0 ) + vd5  ) - ( ( 1 * vd22 ) - 0 ) ) + ( ( 1 * vd22 ) - 0 ) )  ;  subject to uc62 :   ( 0 + ( vd22 - 0 ) ) >= ( ( ( vd22 - 0 ) - 0 ) + 0 )  ;  subject to uc63 :   ( 0 + ( vd1 - 0 ) ) >= ( 0 + ( ( ( 2 * vd3 ) + ( 3600 / ( ( 1 / ( ( ( 95 * ( 1 - ( 4 ** ( -3.772 * vd4 ) ) ) ) / 100 ) * ( 0.355 * ( ( 0.52224 * vd4 ) / ( ( 0.408 * vd4 ) / 1479 ) ) ) ) ) * 3600 ) )  ) - 0 ) )  ;  subject to uc64 :   ( 0 + ( vd2 - 0 ) ) >= ( 0 + ( ( ( 1 * vd22 ) - 0 ) - 0 ) )  ;  subject to uc65 :   ( 0 + ( ( vd3 + ( 3600 / ( ( 1 / ( ( ( 95 * ( 1 - ( 4 ** ( -3.772 * vd4 ) ) ) ) / 100 ) * ( 0.355 * ( ( 0.52224 * vd4 ) / ( ( 0.408 * vd4 ) / 1479 ) ) ) ) ) * 3600 ) )  ) - ( ( ( 3600 / ( ( ( ( 3 / vd6 ) + 0.054166666666666667 ) + ( 0.25 / vd6 ) ) + 37.55152 ) ) - 0 ) + ( 1 * vd5 ) + ( ( 3600 / ( ( ( ( 3 / vd8 ) + 0.054166666666666667 ) + ( 0.25 / vd8 ) ) + 37.55152 ) ) - 0 )  ) ) ) >= cd8  ;  subject to uc66 :   ( 0 + ( ( ( ( 3600 / ( 43.6 + ( ( ( ( ( ( 2.28 / ( 0.03 * ( ( vd7 / 11.938052083641214 ) * 1000 ) ) ) + 0.002442217777777778 ) * 60 ) * 4 ) + 0.213333333333333333 ) + ( ( ( 107.6198 / ( 0.03 * ( ( vd7 / 11.938052083641214 ) * 1000 ) ) ) * 60 ) * 4 ) ) ) ) - 0 ) + vd5  ) - ( ( 1 * vd22 ) - 0 ) ) ) >= cd9  ;  subject to uc67 :   ( 0 + ( ( vd22 - 0 ) - 0 ) ) >= cd10  ;
