{
  "analyticalModel": {
        "name": "computeMetrics",
        "ns": "http://repository.vsnet.gmu.edu/process/umpMfgProcess/shapingProcess/subtractionProcess/machiningSequence/lib/machining.jq"
  },
  "machingSteps": [
    "3 inch Face Mill",
    "1/2 inch Dia 2 Flute Stubby Fullerton EM",
    "1/4 inch Dia 2 Flute Stubby Fullerton EM op 1",
    "3/16 inch Dia 2 Flute Stubby Fullerton EM",
    "1/4 inch x 45 Chamfer Mill",
    "1/4 inch 2 Flute EM With 020 inch x 45 Chamfers",
    "1/4 inch x 093 inch Corner Rounding EM",
    "1/4 x 90 Spot Drill",
    "3/16 inch Drill",
    "#25 Drill",
    "1/4 inch Dia 2 Flute Stubby Fullerton EM op 2"
  ],
  "stepsInputs": {
    "3 inch Face Mill": {
      "analyticalModel": {
            "name": "computeMetrics",
            "ns": "http://repository.vsnet.gmu.edu/process/umpMfgProcess/shapingProcess/subtractionProcess/mechanicalSubtraction/multiPointCutting/milling/horizontalVerticalMilling/lib/millingMachine.jq"
      },
      "inputParamsAndControls": {
        "machineCost": 6850,
        "t_cleaning": 25,
				"n_t": 7,
				"t_unloading": 12,
				"D": 76.2,
				"millType": "face",
				"centered": "yes",
				"Material": {
					"type": "Aluminum Plate 6061-T651",
					"dimentions": {
						"W": 107.6198,
						"H": 25.4,
						"L": 106.1212
					}
				},
				"p_spindle": 36,
				"distance_offset": 1.261,
				"traverse_v": 45000,
				"p_coolant": 1,
				"depth": 8,
				"t_loading": 12,
				"V": {
					"value":{"float?": null},
					"lb": 40,
					"distribution": {
						"sigma": 1.2,
						"mean": 0,
						"distr": "normal"
					},
					"ub": 4000
				},
				"p_basic": 7.5,
				"p_axis": 5,
				"f_t": 0.0257,
				"distance_approach": 1.261,
				"distance_overtravel": 1.261,
				"traverse_h": 45000,
				"t_retract": 1.3,
				"energyCost_per_kwh": 0.63,
				"CO2_per_kwh": 0.0703
			}
		},
    "1/2 inch Dia 2 Flute Stubby Fullerton EM": {
      "analyticalModel": {
            "name": "computeMetrics",
            "ns": "http://repository.vsnet.gmu.edu/process/umpMfgProcess/shapingProcess/subtractionProcess/mechanicalSubtraction/multiPointCutting/milling/horizontalVerticalMilling/lib/millingMachine.jq"
      },
      "inputParamsAndControls": {
        "machineCost": 6850,
        "t_cleaning": 25,
				"n_t": 2,
				"t_unloading": 12,
				"D": 12.7,
				"millType": "peripheral",
				"centered": "yes",
				"Material": {
					"type": "Aluminum Plate 6061-T651",
					"dimentions": {
						"W": 107.6198,
						"H": 25.4,
						"L": 106.1212
					}
				},
				"p_spindle": 36,
				"distance_offset": 1.261,
				"traverse_v": 45000,
				"p_coolant": 1,
				"depth": 1.5,
				"t_loading": 12,
				"V": {
					"value":{"float?": null},
					"lb": 40,
					"distribution": {
						"sigma": 1.2,
						"mean": 0,
						"distr": "normal"
					},
					"ub": 750
				},
				"p_basic": 7.5,
				"p_axis": 5,
				"f_t": 0.0083,
				"distance_approach": 1.261,
				"distance_overtravel": 1.261,
				"traverse_h": 45000,
				"t_retract": 1.3,
				"energyCost_per_kwh": 0.63,
				"CO2_per_kwh": 0.0703
			}
		},
    "1/4 inch Dia 2 Flute Stubby Fullerton EM op 1": {
      "analyticalModel": {
            "name": "computeMetrics",
            "ns": "http://repository.vsnet.gmu.edu/process/umpMfgProcess/shapingProcess/subtractionProcess/mechanicalSubtraction/multiPointCutting/milling/horizontalVerticalMilling/lib/millingMachine.jq"
      },
      "inputParamsAndControls": {
        "machineCost": 6850,
        "t_cleaning": 25,
				"n_t": 2,
				"t_unloading": 12,
				"D": 6.35,
				"millType": "peripheral",
				"centered": "yes",
				"Material": {
					"type": "Aluminum Plate 6061-T651",
					"dimentions": {
						"W": 107.6198,
						"H": 25.4,
						"L": 106.1212
					}
				},
				"p_spindle": 36,
				"distance_offset": 1.261,
				"traverse_v": 45000,
				"p_coolant": 1,
				"depth": 1.5,
				"t_loading": 12,
				"V": {
					"value":{"float?": null},
					"lb": 40,
					"distribution": {
						"sigma": 1.2,
						"mean": 0,
						"distr": "normal"
					},
					"ub": 450
				},
				"p_basic": 7.5,
				"p_axis": 5,
				"f_t": 0.006,
				"distance_approach": 1.261,
				"distance_overtravel": 1.261,
				"traverse_h": 45000,
				"t_retract": 1.3,
				"energyCost_per_kwh": 0.63,
				"CO2_per_kwh": 0.0703
			}
		},
    "3/16 inch Dia 2 Flute Stubby Fullerton EM": {
      "analyticalModel": {
            "name": "computeMetrics",
            "ns": "http://repository.vsnet.gmu.edu/process/umpMfgProcess/shapingProcess/subtractionProcess/mechanicalSubtraction/multiPointCutting/milling/horizontalVerticalMilling/lib/millingMachine.jq"
      },
      "inputParamsAndControls": {
        "machineCost": 6850,
        "t_cleaning": 25,
				"n_t": 2,
				"t_unloading": 12,
				"D": 4.7625,
				"millType": "peripheral",
				"centered": "yes",
				"Material": {
					"type": "Aluminum Plate 6061-T651",
					"dimentions": {
						"W": 107.6198,
						"H": 25.4,
						"L": 106.1212
					}
				},
				"p_spindle": 36,
				"distance_offset": 1.261,
				"traverse_v": 45000,
				"p_coolant": 1,
				"depth": 1.5,
				"t_loading": 12,
				"V": {
					"value":{"float?": null},
					"lb": 40,
					"distribution": {
						"sigma": 1.2,
						"mean": 0,
						"distr": "normal"
					},
				  "ub": 400
				},
				"p_basic": 7.5,
				"p_axis": 5,
				"f_t": 0.00475,
				"distance_approach": 1.261,
				"distance_overtravel": 1.261,
				"traverse_h": 45000,
				"t_retract": 1.3,
				"energyCost_per_kwh": 0.63,
				"CO2_per_kwh": 0.0703
			}
		},
    "1/4 inch x 45 Chamfer Mill": {
      "analyticalModel": {
            "name": "computeMetrics",
            "ns": "http://repository.vsnet.gmu.edu/process/umpMfgProcess/shapingProcess/subtractionProcess/mechanicalSubtraction/multiPointCutting/milling/horizontalVerticalMilling/lib/millingMachine.jq"
      },
      "inputParamsAndControls": {
        "machineCost": 6850,
        "t_cleaning": 25,
				"n_t": 2,
				"t_unloading": 12,
				"D": 6.35,
				"millType": "peripheral",
				"centered": "yes",
				"Material": {
					"type": "Aluminum Plate 6061-T651",
					"dimentions": {
						"W": 107.6198,
						"H": 25.4,
						"L": 106.1212
					}
				},
				"p_spindle": 36,
				"distance_offset": 1.261,
				"traverse_v": 45000,
				"p_coolant": 1,
				"depth": 1.5,
				"t_loading": 12,
				"V": {
					"value":{"float?": null},
					"lb": 40,
					"distribution": {
						"sigma": 1.2,
						"mean": 0,
						"distr": "normal"
					},
					"ub": 400
				},
				"p_basic": 7.5,
				"p_axis": 5,
				"f_t": 0.004,
				"distance_approach": 1.261,
				"distance_overtravel": 1.261,
				"traverse_h": 45000,
				"t_retract": 1.3,
				"energyCost_per_kwh": 0.63,
				"CO2_per_kwh": 0.0703
			}
		},
    "1/4 inch 2 Flute EM With 020 inch x 45 Chamfers": {
      "analyticalModel": {
              "name": "computeMetrics",
              "ns": "http://repository.vsnet.gmu.edu/process/umpMfgProcess/shapingProcess/subtractionProcess/mechanicalSubtraction/multiPointCutting/milling/horizontalVerticalMilling/lib/millingMachine.jq"
        },
      "inputParamsAndControls": {
        "machineCost": 6850,
        "t_cleaning": 25,
				"n_t": 2,
				"t_unloading": 12,
				"D": 5.334,
				"millType": "peripheral",
				"centered": "yes",
				"Material": {
					"type": "Aluminum Plate 6061-T651",
					"dimentions": {
						"W": 107.6198,
						"H": 25.4,
						"L": 106.1212
					}
				},
				"p_spindle": 36,
				"distance_offset": 1.261,
				"traverse_v": 45000,
				"p_coolant": 1,
				"depth": 1.5,
				"t_loading": 12,
				"V": {
					"value":{"float?": null},
					"lb": 40,
					"distribution": {
						"sigma": 1.2,
						"mean": 0,
						"distr": "normal"
					},
					"ub": 400
				},
				"p_basic": 7.5,
				"p_axis": 5,
				"f_t": 0.004,
				"distance_approach": 1.261,
				"distance_overtravel": 1.261,
				"traverse_h": 45000,
				"t_retract": 1.3,
				"energyCost_per_kwh": 0.63,
				"CO2_per_kwh": 0.0703
			}
		},
    "1/4 inch x 093 inch Corner Rounding EM": {
      "analyticalModel": {
            "name": "computeMetrics",
            "ns": "http://repository.vsnet.gmu.edu/process/umpMfgProcess/shapingProcess/subtractionProcess/mechanicalSubtraction/multiPointCutting/milling/horizontalVerticalMilling/lib/millingMachine.jq"
      },
      "inputParamsAndControls": {
        "machineCost": 6850,
        "t_cleaning": 25,
				"n_t": 2,
				"t_unloading": 12,
				"D": 1.6938,
				"millType": "peripheral",
				"centered": "no",
				"Material": {
					"type": "Aluminum Plate 6061-T651",
					"dimentions": {
						"W": 107.6198,
						"H": 25.4,
						"L": 106.1212
					}
				},
				"p_spindle": 36,
				"distance_offset": 1.261,
				"traverse_v": 45000,
				"p_coolant": 1,
				"depth": 1.5,
				"t_loading": 12,
				"V": {
					"value":{"float?": null},
					"lb": 40,
					"distribution": {
						"sigma": 1.2,
						"mean": 0,
						"distr": "normal"
					},
					"ub": 200
				},
				"p_basic": 7.5,
				"p_axis": 5,
				"f_t": 0.004,
				"distance_approach": 1.261,
				"distance_overtravel": 1.261,
				"traverse_h": 45000,
				"t_retract": 1.3,
				"energyCost_per_kwh": 0.63,
				"CO2_per_kwh": 0.0703
			}
		},
    "1/4 x 90 Spot Drill": {
        "analyticalModel": {
              "name": "computeMetrics",
              "ns": "http://repository.vsnet.gmu.edu/process/umpMfgProcess/shapingProcess/subtractionProcess/mechanicalSubtraction/multiPointCutting/holeMaking/drilling/lib/drillingMachine.jq"
        },
        "inputParamsAndControls": {
          "machineCost": 9199,
          "Material": {
  					"type": "Aluminum Plate 6061-T651",
  					"dimentions": {
  						"W": 107.6198,
  						"H": 25.4,
  						"L": 106.1212
  					}
  				},
      		"Holes": {
      			"noOfHoles": 4,
      			"holesApart": 40
      		},
      		"D": 6.4,
          "V": {
						"value":{"float?": null},
  					"lb": 40,
  					"distribution": {
  						"sigma": 1.6,
  						"mean": 0,
  						"distr": "normal"
  					},
  					"ub": 200
  				},
      		"weight": 0.78290043,
      		"traverse_h": 45000,
      		"traverse_v": 45000,
      		"p_spindle": 36,
      		"p_coolant": 1,
      		"p_axis": 5,
      		"t_loading": 9.3,
      		"t_cleaning": 25,
      		"t_unloading": 9.3,
      		"p_basic": 7.5,
      		"energyCost_per_kwh":0.63,
      		"CO2_per_kwh":0.0703
    	}
    },
    "3/16 inch Drill": {
        "analyticalModel": {
            "name": "computeMetrics",
            "ns": "http://repository.vsnet.gmu.edu/process/umpMfgProcess/shapingProcess/subtractionProcess/mechanicalSubtraction/multiPointCutting/holeMaking/drilling/lib/drillingMachine.jq"
        },
        "inputParamsAndControls": {
          "machineCost": 9199,
          "Material": {
  					"type": "Aluminum Plate 6061-T651",
  					"dimentions": {
  						"W": 107.6198,
  						"H": 25.4,
  						"L": 106.1212
  					}
  				},
      		"Holes": {
      			"noOfHoles": 4,
      			"holesApart": 40
      		},
      		"D": 4.76,
          "V": {
						"value":{"float?": null},
  					"lb": 40,
  					"distribution": {
  						"sigma": 1.6,
  						"mean": 0,
  						"distr": "normal"
  					},
  					"ub": 300
  				},
          "f": 0.04,
      		"weight": 0.78290043,
      		"traverse_h": 45000,
      		"traverse_v": 45000,
      		"p_spindle": 36,
      		"p_coolant": 1,
      		"p_axis": 5,
      		"t_loading": 9.3,
      		"t_cleaning": 25,
      		"t_unloading": 9.3,
      		"p_basic": 7.5,
      		"energyCost_per_kwh":0.63,
      		"CO2_per_kwh":0.0703
    	}
    },
    "#25 Drill": {
        "analyticalModel": {
            "name": "computeMetrics",
            "ns": "http://repository.vsnet.gmu.edu/process/umpMfgProcess/shapingProcess/subtractionProcess/mechanicalSubtraction/multiPointCutting/holeMaking/drilling/lib/drillingMachine.jq"
        },
        "inputParamsAndControls": {
          "machineCost": 9199,
          "Material": {
  					"type": "Aluminum Plate 6061-T651",
  					"dimentions": {
  						"W": 107.6198,
  						"H": 25.4,
  						"L": 106.1212
  					}
  				},
      		"Holes": {
      			"noOfHoles": 4,
      			"holesApart": 40
      		},
      		"D": 3.8,
          "V": {
						"value":{"float?": null},
  					"lb": 40,
  					"distribution": {
  						"sigma": 1.6,
  						"mean": 0,
  						"distr": "normal"
  					},
  					"ub": 300
  				},
          "f": 0.03,
      		"weight": 0.78290043,
      		"traverse_h": 45000,
      		"traverse_v": 45000,
      		"p_spindle": 36,
      		"p_coolant": 1,
      		"p_axis": 5,
      		"t_loading": 9.3,
      		"t_cleaning": 25,
      		"t_unloading": 9.3,
      		"p_basic": 7.5,
      		"energyCost_per_kwh":0.63,
      		"CO2_per_kwh":0.0703
    	}
    },
    "1/4 inch Dia 2 Flute Stubby Fullerton EM op 2": {
      "analyticalModel": {
                  "name": "computeMetrics",
                  "ns": "http://repository.vsnet.gmu.edu/process/umpMfgProcess/shapingProcess/subtractionProcess/mechanicalSubtraction/multiPointCutting/milling/horizontalVerticalMilling/lib/millingMachine.jq"
      },
      "inputParamsAndControls": {
        "machineCost": 6850,
        "t_cleaning": 25,
				"n_t": 2,
				"t_unloading": 12,
				"D": 6.35,
				"millType": "peripheral",
				"centered": "yes",
				"Material": {
					"type": "Aluminum Plate 6061-T651",
					"dimentions": {
						"W": 107.6198,
						"H": 25.4,
						"L": 106.1212
					}
				},
				"p_spindle": 36,
				"distance_offset": 1.261,
				"traverse_v": 45000,
				"p_coolant": 1,
				"depth": 1.5,
				"t_loading": 12,
				"V": {
					"value":{"float?": null},
					"lb": 40,
					"distribution": {
						"sigma": 1.2,
						"mean": 0,
						"distr": "normal"
					},
					"ub": 450
				},
				"p_basic": 7.5,
				"p_axis": 5,
				"f_t": 0.006,
				"distance_approach": 1.261,
				"distance_overtravel": 1.261,
				"traverse_h": 45000,
				"t_retract": 1.3,
				"energyCost_per_kwh": 0.63,
				"CO2_per_kwh": 0.0703
			}
		}
	},
  "__comment":{
            "vals not changed":[
              "t_cleaning",
              "t_unloading",
              "p_coolant",
              "depth (drilling && milling): range for interpolation not found in tables",
              "t_loading",
              "p_basic",
              "p_axis",
              "t_retract",
              "Holes.noOfHoles",
              "Holes.holesApart"
            ]
  }
}
