param demand > 0;
param Milling1_V_min > 0;
param Milling1_V_max > 0;
param Drilling1_V_min > 0;
param Drilling1_V_max > 0;
var Milling1_V >= Milling1_V_min,<= Milling1_V_max := 120 ;
var Drilling1_V >= Drilling1_V_min, <= Drilling1_V_max:= 80;
minimize dgal_obj: ( ( 0 + ( ( ( ( ( ( ( ( 180 * ( ( 0.28 * ( ( Milling1_V / 471 ) * 1000 ) ) * 10 ) ) * 0.016333333333333333 ) / 1000 ) * ( ( 646.9693845669907 / ( ( 0.28 * ( ( Milling1_V / 471 ) * 1000 ) ) * 10 ) ) * 60 ) ) + ( 10 * ( ( ( ( 16 / ( ( 0.28 * ( ( Milling1_V / 471 ) * 1000 ) ) * 10 ) ) * 60 ) + 1.3 ) + ( ( 646.9693845669907 / ( ( 0.28 * ( ( Milling1_V / 471 ) * 1000 ) ) * 10 ) ) * 60 ) ) ) ) + ( ( 49 + ( ( ( ( 16 / ( ( 0.28 * ( ( Milling1_V / 471 ) * 1000 ) ) * 10 ) ) * 60 ) + 1.3 ) + ( ( 646.9693845669907 / ( ( 0.28 * ( ( Milling1_V / 471 ) * 1000 ) ) * 10 ) ) * 60 ) ) ) * 7.5 ) ) ) * 0.137 ) ) + ( ( ( ( ( ( ( 0.76 * ( ( 286.37585 * ( 0.394 * ( ( Drilling1_V / 59.974 ) * 1000 ) ) ) / 60 ) ) / 1000 ) * ( ( ( 50 / ( 0.394 * ( ( Drilling1_V / 59.974 ) * 1000 ) ) ) * 60 ) * 4 ) ) + ( 10 * ( ( ( ( ( ( 11.46 / ( 0.394 * ( ( Drilling1_V / 59.974 ) * 1000 ) ) ) + 0.002560833333333333 ) * 60 ) * 4 ) + 0.32 ) + ( ( ( 50 / ( 0.394 * ( ( Drilling1_V / 59.974 ) * 1000 ) ) ) * 60 ) * 4 ) ) ) ) + ( ( 43.6 + ( ( ( ( ( ( 11.46 / ( 0.394 * ( ( Drilling1_V / 59.974 ) * 1000 ) ) ) + 0.002560833333333333 ) * 60 ) * 4 ) + 0.32 ) + ( ( ( 50 / ( 0.394 * ( ( Drilling1_V / 59.974 ) * 1000 ) ) ) * 60 ) * 4 ) ) ) * 7.5 ) ) ) * 0.137 ) ) ; subject to dgal_con1 : ( ( 0 + ( ( 49 + ( ( ( ( 16 / ( ( 0.28 * ( ( Milling1_V / 471 ) * 1000 ) ) * 10 ) ) * 60 ) + 1.3 ) + ( ( 646.9693845669907 / ( ( 0.28 * ( ( Milling1_V / 471 ) * 1000 ) ) * 10 ) ) * 60 ) ) ) ) ) + ( ( 43.6 + ( ( ( ( ( ( 11.46 / ( 0.394 * ( ( Drilling1_V / 59.974 ) * 1000 ) ) ) + 0.002560833333333333 ) * 60 ) * 4 ) + 0.32 ) + ( ( ( 50 / ( 0.394 * ( ( Drilling1_V / 59.974 ) * 1000 ) ) ) * 60 ) * 4 ) ) ) ) ) >= 1/demand ;
