{
    "Lead alloys": {
        "P": 0.50,
        "S": 3500
    },
    "Tin Alloys": {
        "P": 0.40,
        "S": 5000
    },
    "Aluminum Plate 6061-T651": {
        "P": 0.60,
        "S": 8000
    },
    "Aluminum Alloys": {
        "P": 0.60,
        "S": 8000
    },
    "Titanium Alloys": {
        "P": 0.10,
        "S": 60000
    },
    "Zinc": {
        "P": 0.50,
        "S": 14000
    },
    "Cold worked zinc": {
        "P": 0.25,
        "S": 19000
    },
		"Magnesium alloys": {
        "P": 0.50,
        "S": 17000
    },
		"Copper": {
        "P": 0.55,
        "S": 22000
    },
		"Cold worked copper": {
        "P": 0.30,
        "S": 28000
    },
		"Brass": {
        "P": 0.50,
        "S": 32000
    },
		"Cold worked brass": {
        "P": 0.30,
        "S": 52000
    },
		"Tobin bronze": {
        "P": 0.25,
        "S": 36000
    },
		"Cold worked tobin bronze": {
        "P": 0.17,
        "S": 42000
    },
		"Steel, 0.10%C": {
        "P": 0.50,
        "S": 35000
    },
		"Cold worked steel, 0.10%C": {
        "P": 0.38,
        "S": 43000
    },
		"Steel, 0.40%C": {
        "P": 0.27,
        "S": 62000
    },
		"Cold worked steel, 0.40%C": {
        "P": 0.17,
        "S": 78000
    },
		"Steel, 0.80%C": {
        "P": 0.15,
        "S": 97000
    },
		"Cold worked steel, 0.80%C": {
        "P": 0.5,
        "S": 127000
    },
		"Steel, 1.0%C": {
        "P": 0.10,
        "S": 115000
    },
		"Cold worked steel, 1.0%C": {
        "P": 0.2,
        "S": 150000
    },
		"Silicon steel": {
        "P": 0.30,
        "S": 65000
    },
		"Stainless steel": {
        "P": 0.30,
        "S": 57000
    },
		"Nickel": {
        "P": 0.55,
        "S": 35000
    }
}
