{
    "analyticalModel": {
        "name": "computeMetrics",
        "ns": "http://repository.vsnet.gmu.edu/process/mfgSupplyChain/components/simpleMfgProcess/lib/simpleManufacturing.jq"
    },
    "inputParamsAndControls": {
        "outputThru": {
            "prod1": {
                "value": {"float?": null},
                "lb": 0
            },
            "prod2": {
                "value": {"float?": null},
                "lb": 0
            }
        },
        "qtyInPer1out": {
            "part1": {
                "prod1": 2
            },
            "part2": {
                "prod1": 1,
                "prod2": 3
            }
        },
        "manufCostPerUnit": {
            "prod1": 30.0,
            "prod2": 20.0
        },
        "co2perUnit": {
            "prod1": 0.3,
            "prod2": 0.4
        }
    }
}
