{
  "probability": {
    "allow bound": 0.95,
    "refute bound": 0.9
  },
  "confidence": {
    "eventual": 0.95,
    "refute": 0.8
  },
  "inflationJump": 1.3,
  "noiseLevel": 0.1,
  "noOfsimulations": {
    "inflateDeflateIncr": 100,
    "refineCandIncr": 200,
    "exOCBA": 50,
    "accRejCand": 1000
  },
  "budget": {
    "inflateDeflate": 4000,
    "deflatePartitions": 10,
    "refineCands": 2000000,
    "refineCandsDelta": 1000
  },
  "detOptConfig": {
    "1.1": {
      "__comment": "local search algorithm (minos/snopt) with random restarts",
      "solver": "local",
      "mode": 1.1,
      "costDelta": 3,
      "restartDelta": 20
    },
    "1.2": {
      "__comment": "global search (lgo) with 1 restart",
      "solver": "global",
      "mode": 1.2,
      "costDelta": 0,
      "restartDelta": 1
    }
  },
  "store size": 4000,
  "maximumTimeSec": 300000,
  "repeat": 15,
  "mode": [
    1.1,
    2.1
  ],
  "modeDesciption": {
    "1.1": "SODA Phase 1 with local search algorithm (minos/snopt) with random restarts",
    "1.2": "SODA Phase 1 with global search (lgo) with no restarts",
    "2.1": "SODA Phase 2 with OCBA",
    "2.2": "SODA Phase 2 without OCBA i.e., equal budget allocation for each candidate"
  }
}
