{
    "analyticalModel": {
        "name": "computeMetrics",
        "ns": "http://repository.vsnet.gmu.edu/process/umpMfgProcess/shapingProcess/subtractionProcess/mechanicalSubtraction/multiPointCutting/milling/horizontalVerticalMilling/lib/millingMachine.jq"
    },
    "inputParamsAndControls": {
        "Material": {
            "type": "Aluminum Alloys",
            "dimentions": {
                "L": 500,
                "W": 60,
                "H": 100
            }
        },
        "millType": "face",
        "centered": "no",
        "D": 150,
        "V": {
            "value": 120,
            "lb": 30,
            "ub": 200
        },
        "f_t": 0.381,
        "n_t": 10,
        "depth": 3,
        "distance_offset": 25,
        "distance_approach": 8,
        "distance_overtravel": 8,
        "traverse_h": 3000,
        "traverse_v": 2400,
        "t_retract": 1.3,
        "p_spindle": 4,
        "p_coolant": 1,
        "p_axis": 5,
        "t_loading": 12,
        "t_cleaning": 25,
        "t_unloading": 12,
        "p_basic": 7.5,
        "energyCost_per_kwh": 0.63,
        "CO2_per_kwh": 0.0703,
        "machineCost": 6850
    },
    "metricValues": {
        "cost": {
            "total": 0.3880074823614605,
            "energy": 0.213826974007662,
            "wearAndTear": 0.1741805083537986
        },
        "productivity": {
            "totalTime": 91.299601340759935
        },
        "sustainability": {
            "energy": 0.3394078952502571,
            "co2": 0.0238603750360931
        },
        "aux": {
            "amountOfMaterial": 3000000,
            "amountConsumed": 1,
            "amountProduced": 1
        }
    },
    "metricData": {
        "cost": {
            "total": {
                "unit": "$"
            },
            "energy": {
                "unit": "$"
            },
            "wearAndTear": {
                "unit": "$"
            }
        },
        "productivity": {
            "totalTime": {
                "unit": "sec"
            }
        },
        "sustainability": {
            "energy": {
                "unit": "kWh"
            },
            "co2": {
                "unit": "kg"
            }
        },
        "aux": {
            "amountOfMaterial": {
                "unit": "mm^3",
                "comment": "Volume of the input workpiece"
            },
            "amountProduced": {
                "unit": "discreteItems"
            },
            "amountConsumed": {
                "unit": "discreteItems"
            }
        }
    },
    "constraints": true
}
